5 Principled Bayesian Workflow | Contributions to Modern Bayesian Multilevel Modeling
…
If any diagnostics indicate poor performance then not only is our computational method suspect but also our model might not be rich enough to capture the relevant details of the observed data. At the very least we should return to Step Eight and enhance our computational method.

#> 
#> Divergences:
#> 
#> Tree depth:
#> 
#> Energy:

5.3.3 Posterior retrodictive checks

Need an example of using summary stats on posterior retrodictions

#> # A tibble: 1,827 x 11
#>    `1.5%` `5.5%` `50%` `94.5%` `98.5%` post_mean     x     k     n trt       p
#>     <dbl>  <dbl> <dbl>   <dbl>   <dbl>     <dbl> <dbl> <int> <int> <lgl> <dbl>
#>  1  0      0     0       0       0.333    0.0105 -0.5      0     3 TRUE  0    
#>  2  0      0     0       0       0.333    0.0168 -0.45     0     3 TRUE  0    
#>  3  0      0     0       0.333   0.333    0.0253 -0.4      0     3 TRUE  0    
#>  4  0      0     0       0.333   0.333    0.0393 -0.35     0     3 TRUE  0    
#>  5  0      0     0       0.333   0.333    0.053  -0.3      0     3 TRUE  0    
#>  6  0      0     0       0.333   0.667    0.0802 -0.25     0     3 TRUE  0    
#>  7  0      0     0       0.333   0.667    0.117  -0.2      0     3 TRUE  0    
#>  8  0      0     0       0.667   0.667    0.176  -0.15     0     3 TRUE  0    
#>  9  0      0     0.333   0.667   0.667    0.236  -0.1      0     3 TRUE  0    
#> 10  0      0     0.333   0.667   1        0.321  -0.05     0     3 TRUE  0    
#> 11  0      0     0.333   1       1        0.420   0        1     3 TRUE  0.333
#> 12  0      0     0.667   1       1        0.527   0.05     0     3 TRUE  0    
#> 13  0      0.333 0.667   1       1        0.629   0.1      2     3 TRUE  0.667
#> 14  0      0.333 0.667   1       1        0.723   0.15     3     3 TRUE  1    
#> 15  0.333  0.333 1       1       1        0.800   0.2      3     3 TRUE  1    
#> 16  0.333  0.667 1       1       1        0.854   0.25     3     3 TRUE  1    
#> 17  0.333  0.667 1       1       1        0.904   0.3      3     3 TRUE  1    
#> 18  0.333  0.667 1       1       1        0.931   0.35     3     3 TRUE  1    
#> 19  0.667  0.667 1       1       1        0.953   0.4      3     3 TRUE  1    
#> 20  0.667  0.667 1       1       1        0.97    0.45     3     3 TRUE  1    
#> 21  0.667  0.667 1       1       1        0.981   0.5      3     3 TRUE  1    
#> # … with 1,806 more rows
…
5.4.7 Inferential Calibration

5.4.8 Fit Observation

5.4.9 Diagnose posterior fit

5.4.10 Posterior retrodictive checks

#> # A tibble: 1,827 x 13
#>    `1.5%` `5.5%` `50%` `94.5%` `98.5%` post_mean   N_G     x     k     n     G
#>     <dbl>  <dbl> <dbl>   <dbl>   <dbl>     <dbl> <int> <dbl> <int> <int> <int>
#>  1      0  0     0.333   0.667       1     0.240     3 -0.5      0     3     2
#>  2      0  0     0.333   0.667       1     0.263     3 -0.45     0     3     2
#>  3      0  0     0.333   0.667       1     0.287     3 -0.4      0     3     2
#>  4      0  0     0.333   0.667       1     0.305     3 -0.35     0     3     2
#>  5      0  0     0.333   0.667       1     0.328     3 -0.3      0     3     2
#>  6      0  0     0.333   0.667       1     0.357     3 -0.25     0     3     2
#>  7      0  0     0.333   0.667       1     0.377     3 -0.2      0     3     2
#>  8      0  0     0.333   1           1     0.401     3 -0.15     0     3     2
#>  9      0  0     0.333   1           1     0.422     3 -0.1      0     3     2
#> 10      0  0     0.333   1           1     0.455     3 -0.05     0     3     2
#> 11      0  0     0.333   1           1     0.478     3  0        1     3     2
#> 12      0  0     0.667   1           1     0.506     3  0.05     0     3     2
#> 13      0  0     0.667   1           1     0.523     3  0.1      2     3     2
#> 14      0  0     0.667   1           1     0.553     3  0.15     3     3     2
#> 15      0  0     0.667   1           1     0.585     3  0.2      3     3     2
#> 16      0  0     0.667   1           1     0.608     3  0.25     3     3     2
#> 17      0  0.333 0.667   1           1     0.630     3  0.3      3     3     2
#> 18      0  0.333 0.667   1           1     0.656     3  0.35     3     3     2
#> 19      0  0.333 0.667   1           1     0.679     3  0.4      3     3     2
#> 20      0  0.333 0.667   1           1     0.699     3  0.45     3     3     2
#> 21      0  0.333 0.667   1           1     0.717     3  0.5      3     3     2
#> # … with 1,806 more rows, and 2 more variables: trt <int>, p <dbl>
…
